<?xml version="1.0" encoding="UTF-8" standalone="no"?>
<svg
   xmlns:dc="http://purl.org/dc/elements/1.1/"
   xmlns:cc="http://creativecommons.org/ns#"
   xmlns:rdf="http://www.w3.org/1999/02/22-rdf-syntax-ns#"
   xmlns:svg="http://www.w3.org/2000/svg"
   xmlns="http://www.w3.org/2000/svg"
   width="11.641666mm"
   height="11.641666mm"
   viewBox="0 0 11.641666 11.641666"
   version="1.1"
   id="svg8">
  <defs
     id="defs2" />
  <metadata
     id="metadata5">
    <rdf:RDF>
      <cc:Work
         rdf:about="">
        <dc:format>image/svg+xml</dc:format>
        <dc:type
           rdf:resource="http://purl.org/dc/dcmitype/StillImage" />
        <dc:title></dc:title>
      </cc:Work>
    </rdf:RDF>
  </metadata>
  <path
     id="path834"
     style="fill:#4caf50;fill-opacity:1;fill-rule:evenodd;stroke:none;stroke-width:0.529167;stroke-linecap:round;stroke-linejoin:round"
     d="M 5.8208333,0 A 5.8208333,5.8208333 0 0 0 0,5.8208333 5.8208333,5.8208333 0 0 0 5.8208333,11.641667 5.8208333,5.8208333 0 0 0 11.641667,5.8208333 5.8208333,5.8208333 0 0 0 5.8208333,0 Z m 2.8380695,3.6204508 a 0.60785496,0.60785496 0 0 1 0.4242636,0.1793172 0.60785496,0.60785496 0 0 1 0,0.8583456 l -4.051949,4.0534992 a 0.60791576,0.60791576 0 0 1 -0.8604126,0 L 2.5512654,7.0905232 a 0.60785496,0.60785496 0 0 1 0,-0.8604126 0.60785496,0.60785496 0 0 1 0.8583456,0 L 4.6017862,7.4222858 8.224304,3.799768 a 0.60785496,0.60785496 0 0 1 0.390674,-0.1777669 0.60785496,0.60785496 0 0 1 0.043925,-0.00155 z" />
</svg>
